\contentsline {chapter}{Contents}{i}% 
\contentsline {chapter}{\numberline {1}Introduction}{1}% 
\contentsline {chapter}{\numberline {A}Appendix}{2}% 
\contentsline {section}{\numberline {A.1}Planning}{2}% 
\contentsline {subsection}{\numberline {A.1.1}Original Milestones}{2}% 
\contentsline {subsection}{\numberline {A.1.2}Timeline}{3}% 
\contentsline {subsection}{\numberline {A.1.3}Specifications}{5}% 
\contentsline {subsubsection}{\nonumberline Version 0.1 - "Infrastructure"}{5}% 
\contentsline {subsubsection}{\nonumberline Version 0.2 - "Modules"}{9}% 
\contentsline {subsubsection}{\nonumberline Version 0.3 - "Synthesis"}{9}% 
\contentsline {subsubsection}{\nonumberline Version 0.4 - "Validation"}{9}% 
\contentsline {subsubsection}{\nonumberline Version 0.5 - "Rendering"}{9}% 
\contentsline {subsubsection}{\nonumberline Version Fantasy.Land.Purgatory (Patch Bullshit)}{9}% 
