\relax 
\providecommand*\new@tpo@label[2]{}
\@writefile{toc}{\contentsline {chapter}{Contents}{i}\protected@file@percent }
\@writefile{toc}{\contentsline {chapter}{\numberline {1}Introduction}{1}\protected@file@percent }
\@writefile{lof}{\addvspace {10\p@ }}
\@writefile{lot}{\addvspace {10\p@ }}
\@writefile{toc}{\contentsline {chapter}{\numberline {A}Appendix}{2}\protected@file@percent }
\@writefile{lof}{\addvspace {10\p@ }}
\@writefile{lot}{\addvspace {10\p@ }}
\@writefile{toc}{\contentsline {section}{\numberline {A.1}Planning}{2}\protected@file@percent }
\@writefile{toc}{\contentsline {subsection}{\numberline {A.1.1}Original Milestones}{2}\protected@file@percent }
\@writefile{toc}{\contentsline {subsection}{\numberline {A.1.2}Timeline}{3}\protected@file@percent }
\@writefile{toc}{\contentsline {subsection}{\numberline {A.1.3}Specifications}{5}\protected@file@percent }
\@writefile{toc}{\contentsline {subsubsection}{\nonumberline Version 0.1 - "Infrastructure"}{5}\protected@file@percent }
\@writefile{toc}{\contentsline {subsubsection}{\nonumberline Version 0.2 - "Modules"}{9}\protected@file@percent }
\@writefile{toc}{\contentsline {subsubsection}{\nonumberline Version 0.3 - "Synthesis"}{9}\protected@file@percent }
\@writefile{toc}{\contentsline {subsubsection}{\nonumberline Version 0.4 - "Validation"}{9}\protected@file@percent }
\@writefile{toc}{\contentsline {subsubsection}{\nonumberline Version 0.5 - "Rendering"}{9}\protected@file@percent }
\newlabel{app_spec_0.5}{{A.1.3}{9}}
\@writefile{toc}{\contentsline {subsubsection}{\nonumberline Version Fantasy.Land.Purgatory (Patch Bullshit)}{9}\protected@file@percent }
\global\csname @altsecnumformattrue\endcsname
